\relax 
\providecommand\hyper@newdestlabel[2]{}
\providecommand\HyperFirstAtBeginDocument{\AtBeginDocument}
\HyperFirstAtBeginDocument{\ifx\hyper@anchor\@undefined
\global\let\oldcontentsline\contentsline
\gdef\contentsline#1#2#3#4{\oldcontentsline{#1}{#2}{#3}}
\global\let\oldnewlabel\newlabel
\gdef\newlabel#1#2{\newlabelxx{#1}#2}
\gdef\newlabelxx#1#2#3#4#5#6{\oldnewlabel{#1}{{#2}{#3}}}
\AtEndDocument{\ifx\hyper@anchor\@undefined
\let\contentsline\oldcontentsline
\let\newlabel\oldnewlabel
\fi}
\fi}
\global\let\hyper@last\relax 
\gdef\HyperFirstAtBeginDocument#1{#1}
\providecommand\HyField@AuxAddToFields[1]{}
\providecommand\HyField@AuxAddToCoFields[2]{}
\babel@aux{english}{}
\@writefile{toc}{\contentsline {section}{\numberline {0}Preliminaries}{3}{section.0}}
\@writefile{toc}{\contentsline {section}{\numberline {1}Varieties}{4}{section.1}}
\@writefile{toc}{\contentsline {subsection}{\numberline {1.1}Affine Varieties}{4}{subsection.1.1}}
\newlabel{Vsurj}{{2}{4}{}{Item.2}{}}
\newlabel{Vsurj@cref}{{[enumi][2][]2}{[1][4][]4}}
\newlabel{HNS}{{1.5}{6}{Hilbert's Nullstellensatz}{lemma.1.5}{}}
\newlabel{HNS@cref}{{[theorem][5][1]1.5}{[1][6][]6}}
\newlabel{NN}{{1.7}{6}{Noether normalization}{lemma.1.7}{}}
\newlabel{NN@cref}{{[theorem][7][1]1.7}{[1][6][]6}}
\@writefile{toc}{\contentsline {subsubsection}{\numberline {1.1.1}Morphisms}{8}{subsubsection.1.1.1}}
\@writefile{lof}{\contentsline {figure}{\numberline {1.1}{\ignorespaces $V(y - x^2), f(x,y) = x$}}{8}{figure.1.1}}
\@writefile{toc}{\contentsline {subsection}{\numberline {1.2}Projective varieties}{10}{subsection.1.2}}
\@writefile{toc}{\contentsline {subsubsection}{\numberline {1.2.1}Morphisms}{11}{subsubsection.1.2.1}}
\@writefile{toc}{\contentsline {section}{\numberline {2}Sheaves}{12}{section.2}}
\@writefile{toc}{\contentsline {subsection}{\numberline {2.1}Morphism of presheaves}{12}{subsection.2.1}}
\@writefile{toc}{\contentsline {subsection}{\numberline {2.2}Further topics}{13}{subsection.2.2}}
\@writefile{toc}{\contentsline {subsection}{\numberline {2.3}Structure sheaf}{14}{subsection.2.3}}
